{
  "graph_size": 50,
  "n_epochs": 1000,
  "batch_size": 128,
  "encoder": "transformer",
  "n_layers" : 3,
  "n_heads" : 8,
  "embedding_dim" : 128,
  "edge_dim": 1,
  "decode_mode" : "sample",
  "C" : 10,
  "dropout" : 0.1,
  "device" : "cuda:0",
  "learning_rate" : 1e-3,
  "seed" : 1234,
  "freq_save" : 100,
  "freq_log" : 10,
  "use_angle": true,
  "alpha": 1.0
}
